{
  "request": {
    "method": "POST",
    "url": "/api/order"
  },
  "response": {
    "status": 200,
    "headers": {
      "Access-Control-Allow-Origin": "http://localhost:4200",
      "Access-Control-Allow-Methods": "POST"
    },
    "jsonBody": {
      "items": [
        "3 gelbe Bananen"
      ]
    }
  }
}
